\relax 
\providecommand\babel@aux[2]{}
\@nameuse{bbl@beforestart}
\abx@aux@refcontext{none/global//global/global}
\babel@aux{english}{}
\abx@aux@cite{0}{TS22261}
\abx@aux@segm{0}{0}{TS22261}
\abx@aux@cite{0}{TS22104}
\abx@aux@segm{0}{0}{TS22104}
\abx@aux@cite{0}{TS22186}
\abx@aux@segm{0}{0}{TS22186}
\abx@aux@cite{0}{TS22289}
\abx@aux@segm{0}{0}{TS22289}
\abx@aux@cite{0}{TS22203}
\abx@aux@segm{0}{0}{TS22203}
\@writefile{toc}{\contentsline {section}{\numberline {1}Introduction}{2}{}\protected@file@percent }
\abx@aux@cite{0}{TR38824}
\abx@aux@segm{0}{0}{TR38824}
\abx@aux@cite{0}{TR38824}
\abx@aux@segm{0}{0}{TR38824}
\@writefile{toc}{\contentsline {section}{\numberline {2}Problem statement and challenges}{3}{}\protected@file@percent }
\@writefile{toc}{\contentsline {section}{\numberline {3}MAC scheduling for realtime support}{5}{}\protected@file@percent }
\abx@aux@cite{0}{mandelli2019}
\abx@aux@segm{0}{0}{mandelli2019}
\abx@aux@cite{0}{yin2021}
\abx@aux@segm{0}{0}{yin2021}
\abx@aux@cite{0}{TR38824}
\abx@aux@segm{0}{0}{TR38824}
\abx@aux@cite{0}{TR38824}
\abx@aux@segm{0}{0}{TR38824}
\abx@aux@cite{0}{yin2021}
\abx@aux@segm{0}{0}{yin2021}
\@writefile{toc}{\contentsline {section}{\numberline {4}Implementation}{8}{}\protected@file@percent }
\abx@aux@read@bbl@mdfivesum{C0E3B39FD6FF6F8754CB977A3F4B5832}
\abx@aux@defaultrefcontext{0}{TS22261}{none/global//global/global}
\abx@aux@defaultrefcontext{0}{TS22104}{none/global//global/global}
\abx@aux@defaultrefcontext{0}{TS22186}{none/global//global/global}
\abx@aux@defaultrefcontext{0}{TS22289}{none/global//global/global}
\abx@aux@defaultrefcontext{0}{TS22203}{none/global//global/global}
\abx@aux@defaultrefcontext{0}{TR38824}{none/global//global/global}
\abx@aux@defaultrefcontext{0}{mandelli2019}{none/global//global/global}
\abx@aux@defaultrefcontext{0}{yin2021}{none/global//global/global}
\gdef \@abspage@last{9}
