# Fdb version 3
["biber report"] 1678789327 "report.bcf" "report.bbl" "report" 1678789438
  "references.bib" 1678220741 1417 d339437541be1c3314a6933f7fd9940d ""
  "report.bcf" 1678789438 107081 b6f3b64fd491ab22b0dc40b211c4e6e3 "pdflatex"
  (generated)
  "report.bbl"
  "report.blg"
["pdflatex"] 1678789438 "/home/florian/Projects/inf567/report.tex" "report.pdf" "report" 1678789438
  "/home/florian/Projects/inf567/report.tex" 1678789437 15003 e2a608ad28c9e8be26704e884d2dfe7d ""
  "/usr/share/texmf-dist/fonts/enc/dvips/cm-super/cm-super-ts1.enc" 1650183167 2900 1537cc8184ad1792082cd229ecc269f4 ""
  "/usr/share/texmf-dist/fonts/map/fontname/texfonts.map" 1650183167 3524 cb3e574dea2d1052e39280babc910dc8 ""
  "/usr/share/texmf-dist/fonts/tfm/jknappen/ec/tcrm1200.tfm" 1650183167 1536 74b7293ec3713bb7fdca8dd1bd1f469c ""
  "/usr/share/texmf-dist/fonts/tfm/public/cm/cmbx12.tfm" 1650183167 1324 c910af8c371558dc20f2d7822f66fe64 ""
  "/usr/share/texmf-dist/fonts/tfm/public/cm/cmcsc10.tfm" 1650183167 1300 63a6111ee6274895728663cf4b4e7e81 ""
  "/usr/share/texmf-dist/fonts/tfm/public/cm/cmmi12.tfm" 1650183167 1524 4414a8315f39513458b80dfc63bff03a ""
  "/usr/share/texmf-dist/fonts/tfm/public/cm/cmmi6.tfm" 1650183167 1512 f21f83efb36853c0b70002322c1ab3ad ""
  "/usr/share/texmf-dist/fonts/tfm/public/cm/cmmi8.tfm" 1650183167 1520 eccf95517727cb11801f4f1aee3a21b4 ""
  "/usr/share/texmf-dist/fonts/tfm/public/cm/cmr12.tfm" 1650183167 1288 655e228510b4c2a1abe905c368440826 ""
  "/usr/share/texmf-dist/fonts/tfm/public/cm/cmr17.tfm" 1650183167 1292 296a67155bdbfc32aa9c636f21e91433 ""
  "/usr/share/texmf-dist/fonts/tfm/public/cm/cmr6.tfm" 1650183167 1300 b62933e007d01cfd073f79b963c01526 ""
  "/usr/share/texmf-dist/fonts/tfm/public/cm/cmr8.tfm" 1650183167 1292 21c1c5bfeaebccffdb478fd231a0997d ""
  "/usr/share/texmf-dist/fonts/tfm/public/cm/cmsy10.tfm" 1650183167 1124 6c73e740cf17375f03eec0ee63599741 ""
  "/usr/share/texmf-dist/fonts/tfm/public/cm/cmsy6.tfm" 1650183167 1116 933a60c408fc0a863a92debe84b2d294 ""
  "/usr/share/texmf-dist/fonts/tfm/public/cm/cmsy8.tfm" 1650183167 1120 8b7d695260f3cff42e636090a8002094 ""
  "/usr/share/texmf-dist/fonts/tfm/public/cm/cmti12.tfm" 1650183167 1484 ed72f8f5cf654cda15ecc8e32bfcbee5 ""
  "/usr/share/texmf-dist/fonts/tfm/public/cm/cmtt12.tfm" 1650183167 772 9a936b7f5e2ff0557fce0f62822f0bbf ""
  "/usr/share/texmf-dist/fonts/type1/public/amsfonts/cm/cmbx12.pfb" 1650183167 32080 340ef9bf63678554ee606688e7b5339d ""
  "/usr/share/texmf-dist/fonts/type1/public/amsfonts/cm/cmcsc10.pfb" 1650183167 32001 6aeea3afe875097b1eb0da29acd61e28 ""
  "/usr/share/texmf-dist/fonts/type1/public/amsfonts/cm/cmmi12.pfb" 1650183167 36741 fa121aac0049305630cf160b86157ee4 ""
  "/usr/share/texmf-dist/fonts/type1/public/amsfonts/cm/cmr12.pfb" 1650183167 32722 d7379af29a190c3f453aba36302ff5a9 ""
  "/usr/share/texmf-dist/fonts/type1/public/amsfonts/cm/cmr17.pfb" 1650183167 32362 179c33bbf43f19adbb3825bb4e36e57a ""
  "/usr/share/texmf-dist/fonts/type1/public/amsfonts/cm/cmti12.pfb" 1650183167 36118 fad905eba93cff5bce1e185fe980a177 ""
  "/usr/share/texmf-dist/fonts/type1/public/amsfonts/cm/cmtt12.pfb" 1650183167 24252 1e4e051947e12dfb50fee0b7f4e26e3a ""
  "/usr/share/texmf-dist/fonts/type1/public/cm-super/sfrm1200.pfb" 1650183167 136101 f533469f523533d38317ab5729d00c8a ""
  "/usr/share/texmf-dist/tex/generic/babel-english/english.ldf" 1650183167 7008 9ff5fdcc865b01beca2b0fe4a46231d4 ""
  "/usr/share/texmf-dist/tex/generic/babel/babel.sty" 1650183167 147649 823237dc86e8acfaa45204ca8085a60e ""
  "/usr/share/texmf-dist/tex/generic/babel/txtbabel.def" 1650183167 5233 d5e383ed66bf272b71b1a90b596e21c6 ""
  "/usr/share/texmf-dist/tex/generic/iftex/iftex.sty" 1650183167 7237 bdd120a32c8fdb4b433cf9ca2e7cd98a ""
  "/usr/share/texmf-dist/tex/generic/infwarerr/infwarerr.sty" 1650183167 8356 7bbb2c2373aa810be568c29e333da8ed ""
  "/usr/share/texmf-dist/tex/generic/kvsetkeys/kvsetkeys.sty" 1650183167 13807 952b0226d4efca026f0e19dd266dcc22 ""
  "/usr/share/texmf-dist/tex/generic/ltxcmds/ltxcmds.sty" 1650183167 17859 4409f8f50cd365c68e684407e5350b1b ""
  "/usr/share/texmf-dist/tex/generic/pdftexcmds/pdftexcmds.sty" 1650183167 20089 80423eac55aa175305d35b49e04fe23b ""
  "/usr/share/texmf-dist/tex/latex/base/article.cls" 1650183167 20144 8a7de377ae7a11ee924a7499611f5a9d ""
  "/usr/share/texmf-dist/tex/latex/base/ifthen.sty" 1650183167 5157 f308c7c04889e16c588e78aa42599fae ""
  "/usr/share/texmf-dist/tex/latex/base/inputenc.sty" 1650183167 5049 969aec05d5f39c43f8005910498fcf90 ""
  "/usr/share/texmf-dist/tex/latex/base/size12.clo" 1650183167 8449 bc7344e882df4d7e51c046514dee83e4 ""
  "/usr/share/texmf-dist/tex/latex/biblatex/bbx/numeric.bbx" 1650185741 1818 9ed166ac0a9204a8ebe450ca09db5dde ""
  "/usr/share/texmf-dist/tex/latex/biblatex/bbx/standard.bbx" 1650185741 25680 409c3f3d570418bc545e8065bebd0688 ""
  "/usr/share/texmf-dist/tex/latex/biblatex/biblatex.cfg" 1650185741 69 249fa6df04d948e51b6d5c67bea30c42 ""
  "/usr/share/texmf-dist/tex/latex/biblatex/biblatex.def" 1650185741 92433 79544388cb6fa8a24563a36f105a23c0 ""
  "/usr/share/texmf-dist/tex/latex/biblatex/biblatex.sty" 1650185741 517712 1ee0760846fcc6d71ef6ea1aa8b43165 ""
  "/usr/share/texmf-dist/tex/latex/biblatex/blx-case-expl3.sty" 1650185741 8433 72f8188742e7214b7068f345cd0287ac ""
  "/usr/share/texmf-dist/tex/latex/biblatex/blx-compat.def" 1650185741 13919 5426dbe90e723f089052b4e908b56ef9 ""
  "/usr/share/texmf-dist/tex/latex/biblatex/blx-dm.def" 1650185741 32455 8d3e554836db11aab80a8e11be62e1b1 ""
  "/usr/share/texmf-dist/tex/latex/biblatex/cbx/numeric.cbx" 1650185741 4578 2d37f6a8c72f47aacef79870545a713d ""
  "/usr/share/texmf-dist/tex/latex/biblatex/lbx/english.lbx" 1650185741 39965 48ce9ce3350aba9457f1020b1deba5cf ""
  "/usr/share/texmf-dist/tex/latex/etoolbox/etoolbox.sty" 1650183167 46845 3b58f70c6e861a13d927bff09d35ecbc ""
  "/usr/share/texmf-dist/tex/latex/graphics/keyval.sty" 1650183167 2671 4de6781a30211fe0ea4c672e4a2a8166 ""
  "/usr/share/texmf-dist/tex/latex/kvoptions/kvoptions.sty" 1650183167 22521 d2fceb764a442a2001d257ef11db7618 ""
  "/usr/share/texmf-dist/tex/latex/l3backend/l3backend-pdftex.def" 1650183167 31644 9b75b7ffdb38fbd7bb4502cd6b086a3c ""
  "/usr/share/texmf-dist/tex/latex/l3kernel/expl3.sty" 1650183167 6107 e4124ef96db512db87780f95c2a6b136 ""
  "/usr/share/texmf-dist/tex/latex/l3packages/xparse/xparse.sty" 1650183167 6758 7d9d899cbbfc962fbc4bb93f4c69eec2 ""
  "/usr/share/texmf-dist/tex/latex/logreq/logreq.def" 1650185741 1620 fb1c32b818f2058eca187e5c41dfae77 ""
  "/usr/share/texmf-dist/tex/latex/logreq/logreq.sty" 1650185741 6187 b27afc771af565d3a9ff1ca7d16d0d46 ""
  "/usr/share/texmf-dist/tex/latex/url/url.sty" 1650183167 12796 8edb7d69a20b857904dd0ea757c14ec9 ""
  "/usr/share/texmf-dist/web2c/texmf.cnf" 1650183167 39911 2da6c67557ec033436fe5418a70a8a61 ""
  "/var/lib/texmf/fonts/map/pdftex/updmap/pdftex.map" 1678182589 4278762 af3ac1370db81a450c1118eabf1fe718 ""
  "/var/lib/texmf/web2c/pdftex/pdflatex.fmt" 1678182577 2927656 693e5b8c914683b506e9d806b92cb8ea ""
  "report.aux" 1678789438 1878 a23f8a6097fff64b169469fb9e0f165f "pdflatex"
  "report.bbl" 1678789328 8868 c0e3b39fd6ff6f8754cb977a3f4b5832 "biber report"
  "report.run.xml" 1678789438 2319 1dbeae9c91c70510d621aca3b4772e83 "pdflatex"
  "report.tex" 1678789437 15003 e2a608ad28c9e8be26704e884d2dfe7d ""
  (generated)
  "report.aux"
  "report.bcf"
  "report.log"
  "report.pdf"
  "report.run.xml"
